experiment2_pt1/waveform.vcd
$version Generated by VerilatedVcd $end
$date Wed May 31 11:06:30 2023
 $end
$timescale   1ns $end

 $scope module TOP $end
  $var wire  6 c a_in [5:0] $end
  $var wire  6 k b_in [5:0] $end
  $var wire  1 K clk $end
  $var wire  1 s in_valid $end
  $var wire  2 [ op_in [1:0] $end
  $var wire  6 { out [5:0] $end
  $var wire  1 %! out_valid $end
  $var wire  1 S rst $end
  $scope module alu $end
   $var wire 32 -! WIDTH [31:0] $end
   $var wire  6 c a_in [5:0] $end
   $var wire  6 3 a_in_r [5:0] $end
   $var wire  6 k b_in [5:0] $end
   $var wire  6 ; b_in_r [5:0] $end
   $var wire  1 K clk $end
   $var wire  1 s in_valid $end
   $var wire  1 C in_valid_r $end
   $var wire  2 [ op_in [1:0] $end
   $var wire  2 + op_in_r [1:0] $end
   $var wire  6 { out [5:0] $end
   $var wire  1 %! out_valid $end
   $var wire  6 # result [5:0] $end
   $var wire  1 S rst $end
  $upscope $end
 $upscope $end
$enddefinitions $end


#0
b000000 #
b00 +
b000000 3
b000000 ;
0C
1K
0S
b00 [
b100111 c
b000110 k
1s
b000000 {
0%!
b00000000000000000000000000000110 -!
#1
0K
b01 [
b010001 c
b111111 k
0s
#2
b011100 #
b10 +
b101001 3
b001101 ;
1C
1K
b10 [
b101001 c
b001101 k
1s
#3
0K
b110010 c
b111011 k
0s
#4
b000000 #
b01 +
b111100 3
b000010 ;
0C
1K
b01 [
b111100 c
b000010 k
b011100 {
1%!
#5
0K
b00 [
b011011 c
b101000 k
1s
#6
b011100 #
b10 +
b110110 3
b011010 ;
1C
1K
b10 [
b110110 c
b011010 k
b000000 {
0%!
#7
0K
b110011 c
b011111 k
0s
#8
b110100 #
b100110 3
b110010 ;
1K
b100110 c
b110010 k
1s
b011100 {
1%!
#9
0K
b01 [
b110001 c
b011000 k
0s
#10
b000000 #
b00 +
b100101 3
b011101 ;
1K
b00 [
b100101 c
b011101 k
1s
b110100 {
#11
0K
b10 [
b011000 c
b101001 k
0s
#12
b10 +
b101011 3
b110010 ;
0C
1K
b101011 c
b110010 k
b000000 {
#13
0K
b011011 c
b110100 k
1s
#14
b010000 #
b01 +
b001110 3
b000010 ;
1C
1K
b01 [
b001110 c
b000010 k
0%!
#15
0K
b10 [
b100001 c
b111101 k
#16
b011001 #
b110000 3
b101001 ;
1K
b01 [
b110000 c
b101001 k
b010000 {
1%!
#17
0K
b00 [
b000001 c
b100001 k
#18
b111101 #
b10 +
b111110 3
b000001 ;
1K
b10 [
b111110 c
b000001 k
b011001 {
#19
0K
b00 [
b101010 c
b011100 k
0s
#20
b000000 #
b00 +
b001111 3
b111000 ;
0C
1K
b001111 c
b111000 k
b111101 {
#21
0K
b101100 c
b110000 k
1s
#22
b110010 3
b101111 ;
1K
b110010 c
b101111 k
0s
b000000 {
0%!
#23
0K
b01 [
b101100 c
b011000 k
#24
b000010 3
b011010 ;
1C
1K
b00 [
b000010 c
b011010 k
1s
#25
0K
b10 [
b111011 c
b111010 k
0s
#26
b10 +
b111011 3
b101001 ;
0C
1K
b101001 k
1%!
#27
0K
b01 [
b000101 c
b111100 k
#28
b011101 #
b110101 3
b011000 ;
1C
1K
b10 [
b110101 c
b011000 k
1s
0%!
#29
0K
b01 [
b001001 c
b111001 k
#30
b000000 #
b00 +
b101000 3
b011001 ;
1K
b00 [
b101000 c
b011001 k
b011101 {
1%!
#31
0K
b110001 c
b101011 k
#32
b000101 3
b101111 ;
0C
1K
b000101 c
b101111 k
0s
b000000 {
#33
0K
b101001 c
b100001 k
1s
#34
b10 +
b001010 3
b001011 ;
1K
b10 [
b001010 c
b001011 k
0s
0%!
#35
0K
b001000 c
b000111 k
1s
#36
b00 +
b011111 3
b100011 ;
1K
b00 [
b011111 c
b100011 k
0s
#37
0K
b01 [
b011100 c
b111011 k
1s
#38
b100001 #
b10 +
b010100 3
b110011 ;
1C
1K
b10 [
b010100 c
b110011 k
#39
0K
b01 [
b011110 c
b001011 k
#40
b000000 #
b111011 3
b110000 ;
0C
1K
b10 [
b111011 c
b110000 k
0s
b100001 {
1%!
#41
0K
b01 [
b010001 c
b011110 k
#42
b00 +
b101010 3
b010100 ;
1K
b00 [
b101010 c
b010100 k
b000000 {
0%!
#43
0K
b011011 c
b010000 k
1s
#44
b110011 3
b001101 ;
1K
b110011 c
b001101 k
0s
#45
0K
b10 [
b001000 c
b000111 k
#46
b111011 3
b101111 ;
1C
1K
b00 [
b111011 c
b101111 k
1s
#47
0K
b10 [
b111010 c
b011011 k
#48
b10 +
b001011 3
b100001 ;
0C
1K
b001011 c
b100001 k
0s
1%!
#49
0K
b00 [
b111111 c
b100011 k
1s
#50
b011100 #
b01 +
b111000 3
b100100 ;
1C
1K
b01 [
b111000 c
b100100 k
0%!
#51
0K
b10 [
b110101 c
b001010 k
0s
#52
b000000 #
b00 +
b011000 3
b110010 ;
0C
1K
b00 [
b011000 c
b110010 k
b011100 {
1%!
#53
0K
b10 [
b111001 c
b001101 k
#54
b111100 3
b011111 ;
1C
1K
b00 [
b111100 c
b011111 k
1s
b000000 {
0%!
#55
0K
b01 [
b111010 c
b001011 k
#56
b100110 #
b10 +
b101100 3
b000110 ;
1K
b10 [
b101100 c
b000110 k
1%!
#57
0K
b00 [
b101010 c
b011010 k
0s
#58
b101110 #
b01 +
b111110 3
b110000 ;
1K
b01 [
b111110 c
b110000 k
1s
b100110 {
#59
0K
b10 [
b111011 c
b000100 k
#60
b100010 #
b10 +
b110110 3
b010100 ;
1K
b110110 c
b010100 k
b101110 {
#61
0K
b01 [
b100010 c
b110000 k
0s
#62
b000000 #
b00 +
b001111 3
b110010 ;
1K
b00 [
b001111 c
b110010 k
1s
b100010 {
#63
0K
b01 [
b111101 c
b000010 k
#64
b01 +
b001000 3
b110000 ;
0C
1K
b001000 c
b110000 k
0s
b000000 {
#65
0K
b10 [
b001010 c
b101001 k
#66
b010000 #
b10 +
b011010 3
b001010 ;
1C
1K
b011010 c
b001010 k
1s
0%!
#67
0K
b00 [
b001110 c
b011000 k
0s
#68
b000000 #
b00 +
b101100 3
b011011 ;
0C
1K
b101100 c
b011011 k
b010000 {
1%!
#69
0K
b001100 c
b010111 k
1s
#70
b01 +
b001001 3
b000010 ;
1K
b01 [
b001001 c
b000010 k
0s
b000000 {
0%!
#71
0K
b000100 c
b110011 k
1s
#72
b00 +
b100011 3
b000100 ;
1C
1K
b00 [
b100011 c
b000100 k
#73
0K
b10 [
b101101 c
b010100 k
#74
b10 +
b011110 3
b110010 ;
0C
1K
b011110 c
b110010 k
0s
1%!
#75
0K
b00 [
b001010 c
b000100 k
#76
b00 +
b100000 3
b100011 ;
1K
b100000 c
b100011 k
0%!
#77
0K
b10 [
b111011 c
b110010 k
#78
b110100 3
b101100 ;
1C
1K
b00 [
b110100 c
b101100 k
1s
#79
0K
b100000 c
b111010 k
#80
b01 +
b111110 3
b000101 ;
0C
1K
b01 [
b111110 c
b000101 k
0s
1%!
#81
0K
b10 [
b011001 c
b100111 k
1s
#82
b101001 #
b011001 3
b010000 ;
1C
1K
b01 [
b010000 k
0%!
#83
0K
b10 [
b010100 c
b010011 k
0s
#84
b000000 #
b00 +
b110111 3
b011110 ;
0C
1K
b00 [
b110111 c
b011110 k
b101001 {
1%!
#85
0K
b01 [
b010000 c
b101000 k
1s
#86
b010100 3
b000001 ;
1K
b00 [
b010100 c
b000001 k
0s
b000000 {
0%!
#87
0K
b10 [
b111100 c
b000100 k
#88
b100000 #
b10 +
b001001 3
b101001 ;
1C
1K
b001001 c
b101001 k
1s
#89
0K
b010000 c
b011010 k
#90
b000000 #
b00 +
b101010 3
b111110 ;
0C
1K
b00 [
b101010 c
b111110 k
0s
b100000 {
1%!
#91
0K
b010001 c
b100101 k
#92
b10 +
b000100 3
b010011 ;
1K
b10 [
b000100 c
b010011 k
b000000 {
0%!
#93
0K
b00 [
b111011 c
b110001 k
#94
b01 +
b110010 3
b010111 ;
1K
b01 [
b110010 c
b010111 k
#95
0K
b011011 c
b111100 k
1s
#96
b010110 #
b10 +
b100101 3
b001111 ;
1C
1K
b10 [
b100101 c
b001111 k
#97
0K
b00 [
b101001 c
b100010 k
#98
b000000 #
b01 +
b100000 3
b101010 ;
0C
1K
b01 [
b100000 c
b101010 k
0s
b010110 {
1%!
#99
0K
b00 [
b010000 c
b000101 k
#100
b011000 3
b110101 ;
1K
b01 [
b011000 c
b110101 k
b000000 {
0%!
#101
0K
b00 [
b100110 c
b000010 k
#102
b00 +
b011001 3
b101000 ;
1C
1K
b011001 c
b101000 k
1s
#103
0K
b100101 c
b110000 k
0s
#104
b011101 #
b10 +
b111111 3
b100010 ;
1K
b10 [
b111111 c
b100010 k
1s
1%!
#105
0K
b00 [
b000100 c
b011110 k
#106
b010111 #
b01 +
b001001 3
b001110 ;
1K
b01 [
b001001 c
b001110 k
b011101 {
#107
0K
b10 [
b010011 c
b010001 k
0s
#108
b000000 #
b10 +
b000110 3
b010101 ;
0C
1K
b000110 c
b010101 k
b010111 {
#109
0K
b00 [
b010111 c
b100100 k
1s
#110
b001100 3
b001100 ;
1C
1K
b10 [
b001100 c
b001100 k
b000000 {
0%!
#111
0K
b111100 c
b000000 k
#112
b01 +
b100010 3
b111100 ;
0C
1K
b01 [
b100010 c
b111100 k
0s
1%!
#113
0K
b011010 c
b100001 k
1s
#114
b00 +
b101111 3
b100010 ;
1C
1K
b00 [
b101111 c
b100010 k
0%!
#115
0K
b10 [
b110100 c
b101001 k
0s
#116
b10 +
b111111 3
b101111 ;
0C
1K
b111111 c
b101111 k
1%!
#117
0K
b00 [
b010011 c
b101100 k
1s
#118
b01 +
b111000 3
b101101 ;
1K
b01 [
b111000 c
b101101 k
0s
0%!
#119
0K
b10 [
b101101 c
b001101 k
1s
#120
b011101 #
b001001 3
b010100 ;
1C
1K
b01 [
b001001 c
b010100 k
#121
0K
b10 [
b110101 c
b000001 k
0s
#122
b000000 #
b10 +
b100100 3
b000011 ;
0C
1K
b100100 c
b000011 k
b011101 {
1%!
#123
0K
b00 [
b101101 c
b010110 k
#124
b000101 3
b111001 ;
1K
b10 [
b000101 c
b111001 k
b000000 {
0%!
#125
0K
b00 [
b100101 c
b001010 k
1s
#126
b00 +
b110111 3
b001001 ;
1C
1K
b110111 c
b001001 k
#127
0K
b10 [
b010110 c
b000001 k
#128
b010101 3
b101010 ;
0C
1K
b00 [
b010101 c
b101010 k
0s
1%!
#129
0K
b10 [
b101100 c
b001001 k
#130
b10 +
b001101 3
b010110 ;
1K
b001101 c
b010110 k
0%!
#131
0K
b00 [
b101100 c
b111010 k
#132
b00 +
b110100 3
b101000 ;
1C
1K
b110100 c
b101000 k
1s
#133
0K
b10 [
b110010 c
b000010 k
0s
#134
b000011 #
b10 +
b001011 3
b001000 ;
1K
b001011 c
b001000 k
1s
1%!
#135
0K
b001001 c
b000011 k
0s
#136
b000000 #
b101110 3
b000011 ;
0C
1K
b101110 c
b000011 {
#137
0K
b001100 c
b010111 k
1s
#138
b011011 #
b101101 3
b010010 ;
1C
1K
b101101 c
b010010 k
b000000 {
0%!
#139
0K
b00 [
b001100 c
b111001 k
0s
#140
b000000 #
b01 +
b100010 3
b010110 ;
0C
1K
b01 [
b100010 c
b010110 k
b011011 {
1%!
#141
0K
b00 [
b011000 c
b010001 k
#142
b00 +
b011001 3
b001101 ;
1C
1K
b011001 c
b001101 k
1s
b000000 {
0%!
#143
0K
b10 [
b010001 c
b000110 k
#144
b011111 #
b10 +
b001001 3
b101010 ;
1K
b001001 c
b101010 k
1%!
#145
0K
b01 [
b000001 c
b000011 k
0s
#146
b000000 #
b00 +
b010101 3
b000010 ;
1K
b00 [
b010101 c
b000010 k
1s
b011111 {
#147
0K
b10 [
b111100 c
b010011 k
0s
#148
b101001 3
b111100 ;
1K
b00 [
b101001 c
b111100 k
1s
b000000 {
#149
0K
b001101 c
b110001 k
0s
#150
b101001 #
b01 +
b111110 3
b101011 ;
1K
b01 [
b111110 c
b101011 k
1s
#151
0K
b110001 c
b001011 k
0s
#152
b000000 #
b00 +
b110101 3
b100111 ;
0C
1K
b00 [
b110101 c
b100111 k
b101001 {
#153
0K
b10 [
b101010 c
b111110 k
1s
#154
b010110 #
b10 +
b000001 3
b101011 ;
1C
1K
b000001 c
b101011 k
b000000 {
0%!
#155
0K
b01 [
b111110 c
b000011 k
#156
b000000 #
b111111 3
b001101 ;
0C
1K
b10 [
b111111 c
b001101 k
0s
b010110 {
1%!
#157
0K
b111110 c
b001110 k
1s
#158
b01 +
b111001 3
b111100 ;
1K
b01 [
b111001 c
b111100 k
0s
b000000 {
0%!
#159
0K
b10 [
b000111 c
b011011 k
#160
b00 +
b000010 3
b110100 ;
1C
1K
b00 [
b000010 c
b110100 k
1s
#161
0K
b01 [
b110010 c
b010110 k
#162
b10 +
b000001 3
b001101 ;
0C
1K
b10 [
b000001 c
b001101 k
0s
1%!
#163
0K
b010000 c
b001011 k
1s
#164
b00 +
b011001 3
b010000 ;
1C
1K
b00 [
b011001 c
b010000 k
0%!
#165
0K
b10 [
b011111 c
b001110 k
0s
#166
b001010 3
b100001 ;
1K
b00 [
b001010 c
b100001 k
1s
1%!
#167
0K
b10 [
b111100 c
b100111 k
0s
#168
b10 +
b011011 3
b111111 ;
0C
1K
b011011 c
b111111 k
#169
0K
b00 [
b010101 c
b011000 k
#170
b100101 3
b110010 ;
1K
b10 [
b100101 c
b110010 k
0%!
#171
0K
b00 [
b111101 c
b111110 k
#172
b00 +
b001110 3
b100001 ;
1C
1K
b001110 c
b100001 k
1s
#173
0K
b10 [
b101111 c
b000010 k
#174
b100011 3
b001001 ;
1K
b00 [
b100011 c
b001001 k
1%!
#175
0K
b10 [
b110000 c
b010111 k
0s
#176
b001101 #
b10 +
b010110 3
1K
b010110 c
b001001 k
1s
#177
0K
b01 [
b100001 c
b011011 k
#178
b000000 #
b00 +
b001101 3
b011000 ;
1K
b00 [
b001101 c
b011000 k
b001101 {
#179
0K
b01 [
b010110 c
b000010 k
0s
#180
b01 +
b100011 3
b001111 ;
0C
1K
b100011 c
b001111 k
b000000 {
#181
0K
b10 [
b010010 c
b011000 k
1s
#182
b110110 #
b100001 3
b010101 ;
1C
1K
b01 [
b100001 c
b010101 k
0%!
#183
0K
b10 [
b101100 c
b110011 k
0s
#184
b000000 #
b00 +
b111100 3
b110111 ;
0C
1K
b00 [
b111100 c
b110111 k
b110110 {
1%!
#185
0K
b01 [
b010011 c
b101111 k
#186
b101001 #
b01 +
b000111 3
b100010 ;
1C
1K
b000111 c
b100010 k
1s
b000000 {
0%!
#187
0K
b100100 c
b001101 k
0s
#188
b000000 #
b00 +
b011100 3
b010011 ;
0C
1K
b00 [
b011100 c
b010011 k
b101001 {
1%!
#189
0K
b10 [
b101011 c
b100110 k
#190
b10 +
b111011 3
b111001 ;
1K
b111011 c
b111001 k
b000000 {
0%!
#191
0K
b00 [
b101100 c
b111011 k
#192
b01 +
b110011 3
b011000 ;
1K
b01 [
b110011 c
b011000 k
#193
0K
b00 [
b000111 c
b101011 k
#194
b001101 3
b010010 ;
1K
b01 [
b001101 c
b010010 k
#195
0K
b00 [
b011111 c
b101100 k
1s
#196
b010100 #
b000000 3
b010100 ;
1C
1K
b01 [
b000000 c
b010100 k
#197
0K
b10 [
b111010 c
b001110 k
0s
#198
b000000 #
b00 +
b000111 3
b010110 ;
1K
b00 [
b000111 c
b010110 k
1s
b010100 {
1%!
#199
0K
b01 [
b010001 c
b001000 k
0s
